<?xml version="1.0" encoding="UTF-8"?>
<svg width="13px" height="16px" viewBox="0 0 13 16" version="1.1" xmlns="http://www.w3.org/2000/svg" xmlns:xlink="http://www.w3.org/1999/xlink">
    <!-- Generator: Sketch 49.2 (51160) - http://www.bohemiancoding.com/sketch -->
    <title>placeholder (3)</title>
    <desc>Created with Sketch.</desc>
    <defs></defs>
    <g id="Page-1" stroke="none" stroke-width="1" fill="none" fill-rule="evenodd" opacity="0.295686141">
        <g id="placeholder-(3)" fill="#000000" fill-rule="nonzero">
            <path d="M6.49660574,0 C2.91906005,0 0.00678851175,2.87798742 0.00678851175,6.41341719 C0.00678851175,6.81593291 0.0441253264,7.22180294 0.122193211,7.61761006 C0.125587467,7.64109015 0.139164491,7.7115304 0.166318538,7.83228512 C0.264751958,8.26498952 0.410704961,8.69098532 0.60078329,9.09685535 C1.3,10.7236897 2.83759791,13.2226415 6.21148825,15.8993711 C6.29634465,15.966457 6.39817232,16 6.5,16 C6.60182768,16 6.70365535,15.966457 6.78851175,15.8993711 C10.1590078,13.2226415 11.7,10.7236897 12.3992167,9.09685535 C12.589295,8.69098532 12.735248,8.26834382 12.8336815,7.83228512 C12.8608355,7.7115304 12.8744125,7.64109015 12.8778068,7.61761006 C12.9524804,7.22180294 12.9932115,6.81593291 12.9932115,6.41341719 C12.986423,2.87798742 10.0741514,0 6.49660574,0 Z M11.9681462,7.45995807 C11.9681462,7.46666667 11.964752,7.47337526 11.964752,7.48008386 C11.9613577,7.49685535 11.9511749,7.54716981 11.9342037,7.62431866 C11.9342037,7.62767296 11.9342037,7.62767296 11.9342037,7.63102725 C11.8493473,8.0067086 11.7237598,8.37232704 11.5574413,8.7245283 C11.554047,8.7278826 11.554047,8.73459119 11.5506527,8.73794549 C10.9159269,10.2238994 9.52428198,12.4914046 6.49660574,14.963522 C3.4689295,12.4914046 2.0772846,10.2238994 1.44255875,8.73794549 C1.43916449,8.73459119 1.43916449,8.7278826 1.43577023,8.7245283 C1.27284595,8.37568134 1.14725849,8.0067086 1.05900783,7.63102725 C1.05900783,7.62767296 1.05900783,7.62767296 1.05900783,7.62431866 C1.0386423,7.54716981 1.03185379,7.49685535 1.02845953,7.48008386 C1.02845953,7.47337526 1.02506527,7.46666667 1.02506527,7.45660377 C0.957180157,7.11111111 0.923237598,6.76226415 0.923237598,6.41006289 C0.923237598,3.37442348 3.42480418,0.90230608 6.49660574,0.90230608 C9.56840731,0.90230608 12.0699739,3.37442348 12.0699739,6.41006289 C12.0699739,6.76561845 12.0360313,7.11781971 11.9681462,7.45995807 Z" id="Shape"></path>
            <path d="M6.49660574,2.41174004 C4.22584856,2.41174004 2.37597911,4.23983229 2.37597911,6.48385744 C2.37597911,8.7278826 4.22584856,10.5559748 6.49660574,10.5559748 C8.76736292,10.5559748 10.6172324,8.7278826 10.6172324,6.48385744 C10.6172324,4.23983229 8.76736292,2.41174004 6.49660574,2.41174004 Z M6.49660574,9.65031447 C4.72819843,9.65031447 3.2924282,8.22809224 3.2924282,6.48385744 C3.2924282,4.73962264 4.73159269,3.31740042 6.49660574,3.31740042 C8.2616188,3.31740042 9.70078329,4.73962264 9.70078329,6.48385744 C9.70078329,8.22809224 8.26501305,9.65031447 6.49660574,9.65031447 Z" id="Shape"></path>
        </g>
    </g>
</svg>