<?xml version="1.0" encoding="UTF-8"?>
<svg width="16px" height="14px" viewBox="0 0 16 14" version="1.1" xmlns="http://www.w3.org/2000/svg" xmlns:xlink="http://www.w3.org/1999/xlink">
    <!-- Generator: Sketch 49.2 (51160) - http://www.bohemiancoding.com/sketch -->
    <title>sign-out</title>
    <desc>Created with Sketch.</desc>
    <defs></defs>
    <g id="Page-1" stroke="none" stroke-width="1" fill="none" fill-rule="evenodd" opacity="0.298063859">
        <g id="sign-out" fill="#444444" fill-rule="nonzero">
            <polygon id="Shape" points="9 3 9 0 0 0 0 14 9 14 9 11 8 11 8 13 1 13 1 1 8 1 8 3"></polygon>
            <polygon id="Shape" points="16 7 11 3 11 5 6 5 6 9 11 9 11 11"></polygon>
        </g>
    </g>
</svg>